…
Creating the suitable recipe to apply feature engineering to our data

Create workflow

Create a workflow that combine the model and the recipe.

Fit the model

Train and fitting the model using the training split of the data.

Make predictions for training data

Using the trained model for prediction on the training data.

## # A tibble: 33,907 x 18
##    .pred_class   age job         marital education default balance housing loan 
##    <fct>       <int> <fct>       <fct>   <fct>     <fct>     <int> <fct>   <fct>
##  1 no             58 management  married tertiary  no         2143 yes     no   
##  2 no             44 technician  single  secondary no           29 yes     no   
##  3 no             47 blue-collar married unknown   no         1506 yes     no   
##  4 no             35 management  married tertiary  no          231 yes     no   
##  5 no             28 management  single  tertiary  no          447 yes     yes  
##  6 no             42 entreprene~ divorc~ tertiary  yes           2 yes     no   
##  7 no             58 retired     married primary   no          121 yes     no   
##  8 no             43 technician  single  secondary no          593 yes     no   
##  9 no             29 admin.      single  secondary no          390 yes     no   
## 10 no             53 technician  married secondary no            6 yes     no   
## # ... with 33,897 more rows, and 9 more variables: contact <fct>, day <chr>,
## #   month <fct>, duration <int>, campaign <int>, pdays <int>, previous <int>,
## #   poutcome <fct>, y <fct>
…
## # A tibble: 3 x 3
##   .metric  .estimator .estimate
##   <chr>    <chr>          <dbl>
## 1 accuracy binary         0.902
## 2 sens     binary         0.973
## 3 spec     binary         0.360

Make predictions for testing data

Using the trained model for prediction on the testing data.

## # A tibble: 11,304 x 18
##    .pred_class   age job         marital education default balance housing loan 
##    <fct>       <int> <fct>       <fct>   <fct>     <fct>     <int> <fct>   <fct>
##  1 no             33 entreprene~ married secondary no            2 yes     yes  
##  2 no             33 unknown     single  unknown   no            1 no      no   
##  3 no             41 admin.      divorc~ secondary no          270 yes     no   
##  4 no             57 services    married secondary no          162 yes     no   
##  5 no             45 admin.      single  unknown   no           13 yes     no   
##  6 no             56 management  married tertiary  no          779 yes     no   
##  7 no             40 retired     married primary   no            0 yes     yes  
##  8 no             46 management  single  secondary no         -246 yes     no   
##  9 no             36 technician  single  secondary no          265 yes     yes  
## 10 no             57 technician  married secondary no          839 no      yes  
## # ... with 11,294 more rows, and 9 more variables: contact <fct>, day <chr>,
## #   month <fct>, duration <int>, campaign <int>, pdays <int>, previous <int>,
## #   poutcome <fct>, y <fct>
…
# Hyperparameter tuning with cross validation
tune_results <- tune_wkfl %>%
tune_grid(resamples = folds,
grid = grid,
metrics = metric_set(accuracy))

autoplot(tune_results)

<img src="{{< blogdown/postref >}}index_files/figure-html/unnamed-chunk-15-1.png" width="672" />

tune_results %>%
collect_metrics()

## # A tibble: 27 x 9
##    cost_complexity tree_depth min_n .metric  .estimator  mean     n   std_err
##              <dbl>      <int> <int> <chr>    <chr>      <dbl> <int>     <dbl>
##  1    0.0000000001          1     2 accuracy binary     0.883    10 0.0000417
##  2    0.00000316            1     2 accuracy binary     0.883    10 0.0000417
##  3    0.1                   1     2 accuracy binary     0.883    10 0.0000417
##  4    0.0000000001          8     2 accuracy binary     0.899    10 0.000797 
##  5    0.00000316            8     2 accuracy binary     0.899    10 0.000797 
##  6    0.1                   8     2 accuracy binary     0.883    10 0.0000417
##  7    0.0000000001         15     2 accuracy binary     0.891    10 0.00151  
##  8    0.00000316           15     2 accuracy binary     0.891    10 0.00151  
##  9    0.1                  15     2 accuracy binary     0.883    10 0.0000417
## 10    0.0000000001          1    21 accuracy binary     0.883    10 0.0000417
## # ... with 17 more rows, and 1 more variable: .config <chr>
…
tuned_wkflw <- workflow() %>%
  # Add model
  add_model(tuned_decision_tree_mdl) %>%
  # Add recipe
  add_recipe(the_recipe)

fit_tuned_mdl <- tuned_wkflw %>%
  fit(data=test_data)

tuned_prediction<-predict(fit_tuned_mdl, test_data,type = 'class') %>%
  bind_cols(test_data %>% select(everything()))

tuned_prediction

## # A tibble: 11,304 x 18
##    .pred_class   age job         marital education default balance housing loan 
##    <fct>       <int> <fct>       <fct>   <fct>     <fct>     <int> <fct>   <fct>
##  1 no             33 entreprene~ married secondary no            2 yes     yes  
##  2 no             33 unknown     single  unknown   no            1 no      no   
##  3 no             41 admin.      divorc~ secondary no          270 yes     no   
##  4 no             57 services    married secondary no          162 yes     no   
##  5 no             45 admin.      single  unknown   no           13 yes     no   
##  6 no             56 management  married tertiary  no          779 yes     no   
##  7 no             40 retired     married primary   no            0 yes     yes  
##  8 no             46 management  single  secondary no         -246 yes     no   
##  9 no             36 technician  single  secondary no          265 yes     yes  
## 10 no             57 technician  married secondary no          839 no      yes  
## # ... with 11,294 more rows, and 9 more variables: contact <fct>, day <chr>,
## #   month <fct>, duration <int>, campaign <int>, pdays <int>, previous <int>,
## #   poutcome <fct>, y <fct>
…
