…
Creating the logistic regression model that will be used to identify whether a customer will subscribe to a term deposit or not.

creating the recipie

creating the suitable recipie to apply feature engineering to our data

Create workflow

Create a workflow that combine the model and the recipe.

Fit the model

Train and fitting the model using the training split of the data.

## # A tibble: 72 x 5
##    term             estimate std.error statistic  p.value
##    <chr>               <dbl>     <dbl>     <dbl>    <dbl>
##  1 (Intercept)      -1.46       0.236     -6.18  6.45e-10
##  2 age              -0.0267     0.0272    -0.982 3.26e- 1
##  3 balance           0.0312     0.0185     1.69  9.06e- 2
##  4 duration          1.07       0.0191    56.2   0       
##  5 campaign         -0.275      0.0363    -7.58  3.51e-14
##  6 pdays             0.00805    0.0357     0.226 8.21e- 1
##  7 previous          0.0220     0.0159     1.38  1.67e- 1
##  8 job_blue.collar  -0.303      0.0843    -3.60  3.22e- 4
##  9 job_entrepreneur -0.265      0.144     -1.84  6.55e- 2
## 10 job_housemaid    -0.378      0.151     -2.50  1.25e- 2
## 11 job_management   -0.192      0.0848    -2.26  2.35e- 2
## 12 job_retired       0.282      0.113      2.49  1.29e- 2
## # ... with 60 more rows

Make predictions for training data

Using the trained model for prediction where the training data is used.

## # A tibble: 33,907 x 18
##    .pred_class   age job         marital education default balance housing loan 
##    <fct>       <int> <fct>       <fct>   <fct>     <fct>     <int> <fct>   <fct>
##  1 no             58 management  married tertiary  no         2143 yes     no   
##  2 no             33 entreprene~ married secondary no            2 yes     yes  
##  3 no             47 blue-collar married unknown   no         1506 yes     no   
##  4 no             33 unknown     single  unknown   no            1 no      no   
##  5 no             35 management  married tertiary  no          231 yes     no   
##  6 no             43 technician  single  secondary no          593 yes     no   
##  7 no             29 admin.      single  secondary no          390 yes     no   
##  8 no             53 technician  married secondary no            6 yes     no   
##  9 no             58 technician  married unknown   no           71 yes     no   
## 10 no             57 services    married secondary no          162 yes     no   
## # ... with 33,897 more rows, and 9 more variables: contact <fct>, day <chr>,
## #   month <fct>, duration <int>, campaign <int>, pdays <int>, previous <int>,
## #   poutcome <fct>, y <fct>
…
## # A tibble: 3 x 3
##   .metric  .estimator .estimate
##   <chr>    <chr>          <dbl>
## 1 accuracy binary         0.902
## 2 sens     binary         0.975
## 3 spec     binary         0.355

Make predictions for testing data

Using the trained model for prediction where the testing data is used.

## # A tibble: 11,304 x 18
##    .pred_class   age job         marital education default balance housing loan 
##    <fct>       <int> <fct>       <fct>   <fct>     <fct>     <int> <fct>   <fct>
##  1 no             44 technician  single  secondary no           29 yes     no   
##  2 no             28 management  single  tertiary  no          447 yes     yes  
##  3 no             42 entreprene~ divorc~ tertiary  yes           2 yes     no   
##  4 no             58 retired     married primary   no          121 yes     no   
##  5 no             41 admin.      divorc~ secondary no          270 yes     no   
##  6 no             51 retired     married primary   no          229 yes     no   
##  7 no             45 admin.      single  unknown   no           13 yes     no   
##  8 no             57 blue-collar married primary   no           52 yes     no   
##  9 no             60 retired     married primary   no           60 yes     no   
## 10 no             36 technician  single  secondary no          265 yes     yes  
## # ... with 11,294 more rows, and 9 more variables: contact <fct>, day <chr>,
## #   month <fct>, duration <int>, campaign <int>, pdays <int>, previous <int>,
## #   poutcome <fct>, y <fct>
…
