A03 Resampling Methods | HOME
…
Creating the logistic regression model that will be used to identify whether a customer will subscribe to a term deposit or not.

creating the recipe

creating the suitable recipe to apply feature engineering to our data

Create workflow

Create a workflow that combine the model and the recipe.

Fit the model

Train and fitting the model using the training split of the data.

## # A tibble: 35 x 5
##    term              estimate std.error statistic  p.value
##    <chr>                <dbl>     <dbl>     <dbl>    <dbl>
##  1 (Intercept)         -1.65     0.126     -13.1  3.88e-39
##  2 duration             1.06     0.0189     56.3  0       
##  3 campaign            -0.272    0.0358     -7.60 2.94e-14
##  4 job_blue.collar     -0.368    0.0833     -4.41 1.01e- 5
##  5 job_entrepreneur    -0.367    0.143      -2.57 1.01e- 2
##  6 job_housemaid       -0.441    0.150      -2.95 3.20e- 3
##  7 job_management      -0.243    0.0838     -2.90 3.72e- 3
##  8 job_retired          0.166    0.0997      1.67 9.57e- 2
##  9 job_self.employed   -0.330    0.128      -2.57 1.03e- 2
## 10 job_services        -0.242    0.0971     -2.49 1.27e- 2
## 11 job_student          0.521    0.119       4.37 1.23e- 5
## 12 job_technician      -0.183    0.0794     -2.31 2.11e- 2
## # ... with 23 more rows

Make predictions for training data

Using the trained model for prediction where the training data is used.

## # A tibble: 33,907 x 11
##    .pred_class y     job          education housing loan  contact month duration
##    <fct>       <fct> <fct>        <fct>     <fct>   <fct> <fct>   <fct>    <int>
##  1 no          no    management   tertiary  yes     no    unknown may        261
##  2 no          no    entrepreneur secondary yes     yes   unknown may         76
##  3 no          no    blue-collar  unknown   yes     no    unknown may         92
##  4 no          no    unknown      unknown   no      no    unknown may        198
##  5 no          no    management   tertiary  yes     no    unknown may        139
##  6 no          no    technician   secondary yes     no    unknown may         55
##  7 no          no    admin.       secondary yes     no    unknown may        137
##  8 no          no    technician   secondary yes     no    unknown may        517
##  9 no          no    technician   unknown   yes     no    unknown may         71
## 10 no          no    services     secondary yes     no    unknown may        174
## # ... with 33,897 more rows, and 2 more variables: campaign <int>,
## #   poutcome <fct>
…
## # A tibble: 3 x 3
##   .metric  .estimator .estimate
##   <chr>    <chr>          <dbl>
## 1 accuracy binary         0.901
## 2 sens     binary         0.975
## 3 spec     binary         0.346

Make predictions for testing data

Using the trained model for prediction where the testing data is used.

## # A tibble: 11,304 x 11
##    .pred_class y     job          education housing loan  contact month duration
##    <fct>       <fct> <fct>        <fct>     <fct>   <fct> <fct>   <fct>    <int>
##  1 no          no    technician   secondary yes     no    unknown may        151
##  2 no          no    management   tertiary  yes     yes   unknown may        217
##  3 no          no    entrepreneur tertiary  yes     no    unknown may        380
##  4 no          no    retired      primary   yes     no    unknown may         50
##  5 no          no    admin.       secondary yes     no    unknown may        222
##  6 no          no    retired      primary   yes     no    unknown may        353
##  7 no          no    admin.       unknown   yes     no    unknown may         98
##  8 no          no    blue-collar  primary   yes     no    unknown may         38
##  9 no          no    retired      primary   yes     no    unknown may        219
## 10 no          no    technician   secondary yes     yes   unknown may        348
## # ... with 11,294 more rows, and 2 more variables: campaign <int>,
## #   poutcome <fct>
…
creating the suitable recipe to apply feature engineering to our data

Create workflow

Create a workflow that combine the model and the recipe.

Fit the model

Train and fitting the model using the training split of the data.

Make predictions for training data

Using the trained model for prediction where the training data is used.

## # A tibble: 328 x 10
##    .pred price carat colour clarity cut   certification polish symmetry
##    <dbl> <dbl> <dbl> <chr>  <chr>   <chr> <chr>         <chr>  <chr>   
##  1 350.    190  0.09 D      SI1     X     IGI           G      G       
##  2 134.    160  0.09 E      SI1     I     IGI           G      G       
##  3  85.6   160  0.09 F      SI1     I     IGI           V      G       
##  4 134.    180  0.09 E      SI1     I     IGI           G      G       
##  5 227.    190  0.09 E      VS1     I     IGI           V      G       
##  6 196.    330  0.1  E      VS2     V     IGI           V      G       
##  7 192.    180  0.1  E      VS2     X     IGI           G      G       
##  8  88.9   160  0.1  F      SI1     X     IGI           G      G       
##  9 142.    160  0.1  E      SI1     V     IGI           G      G       
## 10  60.7   190  0.1  E      SI2     G     IGI           V      G       
## # ... with 318 more rows, and 1 more variable: wholesaler <chr>
…
RMSE

## # A tibble: 1 x 3
##   .metric .estimator .estimate
##   <chr>   <chr>          <dbl>
## 1 rmse    standard        136.

Make predictions for testing data

Using the trained model for prediction where the testing data is used.

## # A tibble: 112 x 10
##    .pred price carat colour clarity cut   certification polish symmetry
##    <dbl> <dbl> <dbl> <chr>  <chr>   <chr> <chr>         <chr>  <chr>   
##  1 3035.  3000  0.92 I      SI2     G     AGS           V      V       
##  2 3028.  3000  0.92 I      SI2     V     AGS           G      G       
##  3 3088.  3006  0.9  J      VS2     V     GIA           V      V       
##  4 3027.  3027  0.81 F      SI1     V     AGS           V      V       
##  5 2957.  3036  0.81 H      SI1     V     GIA           G      V       
##  6 3235.  3041  0.83 D      SI2     G     GIA           G      G       
##  7 3052.  3044  0.91 I      SI2     I     GIA           V      V       
##  8 3000.  3062  0.8  E      SI2     V     GIA           V      V       
##  9   NA   3081  0.9  F      SI2     F     GIA           v      G       
## 10 2956.  3089  0.91 H      SI2     F     GIA           V      V       
## # ... with 102 more rows, and 1 more variable: wholesaler <chr>
…
